./TestImages/TestData/frame_002.jpeg	168,536,664,1072	0.80214	0.69
./TestImages/TestData/frame_003.jpeg	156,560,648,1072	0.87489	0.28
./TestImages/TestData/frame_004.jpeg	112,560,688,1136	0.87489	0.27
./TestImages/TestData/frame_005.jpeg	132,556,628,1080	0.96695	0.29
./TestImages/TestData/frame_006.jpeg	200,520,632,984	0.92606	0.30
